Curso_Introductorio_Datos/mediciones.csv

#Digilent WaveForms Oscilloscope Acquisition
#Device Name: EExplorer
#Serial Number: SN:210151AA5CFE
#Date Time: 2020-09-08 00:42:59.235
#Sample rate: 4e+07Hz
#Samples: 8192
#Trigger: Source: Channel 1 Type: Edge Condition: Rising Level: 0 V Hyst.: Auto HoldOff: 0 s
#Channel 1: Range: 4 V/div Offset: 0 V Attenuation: 1 X
#Channel 2: Range: 4 V/div Offset: 0 V Attenuation: 1 X
#Wavegen Channel 1: Running
#Mode: Simple
#Type: Triangle
#Frequency: 15.392 kHz
#Period: 64.968815 us
#Amplitude: 10 V
#Offset: 0 V
#Symmetry: 50 %
#Phase: 0 °

Time (s),Channel 1 (V),Channel 2 (V)
-0.000102385,2.924948443,-2.535673811
-0.00010236,2.884662039,-2.575652513
-0.000102335,2.884662039,-2.575652513
-0.00010231,2.844375635,-2.575652513
-0.000102285,2.844375635,-2.575652513
-0.00010226,2.844375635,-2.615631214
-0.000102235,2.804089231,-2.575652513
-0.00010221,2.804089231,-2.615631214
-0.000102185,2.804089231,-2.615631214
-0.00010216,2.804089231,-2.615631214
-0.000102135,2.763802827,-2.615631214
-0.00010211,2.763802827,-2.615631214
-0.000102085,2.723516423,-2.655609916
-0.00010206,2.683230019,-2.655609916
-0.000102035,2.723516423,-2.655609916
-0.00010201,2.683230019,-2.655609916
-0.000101985,2.683230019,-2.695588617
-0.00010196,2.642943615,-2.695588617
-0.000101935,2.642943615,-2.695588617
-0.00010191,2.642943615,-2.695588617
-0.000101885,2.602657211,-2.695588617
-0.00010186,2.602657211,-2.695588617
-0.000101835,2.562370807,-2.735567319
-0.00010181,2.562370807,-2.735567319
-0.000101785,2.522084404,-2.735567319
-0.00010176,2.562370807,-2.735567319
-0.000101735,2.522084404,-2.77554602
-0.00010171,2.481798,-2.77554602
-0.000101685,2.481798,-2.77554602
-0.00010166,2.441511596,-2.815524722
-0.000101635,2.441511596,-2.77554602
-0.00010161,2.441511596,-2.77554602
-0.000101585,2.441511596,-2.815524722
-0.00010156,2.401225192,-2.815524722
-0.000101535,2.401225192,-2.815524722
-0.00010151,2.401225192,-2.815524722
-0.000101485,2.360938788,-2.855503423
-0.00010146,2.360938788,-2.855503423
-0.000101435,2.320652384,-2.855503423
-0.00010141,2.320652384,-2.855503423
-0.000101385,2.320652384,-2.855503423
-0.00010136,2.28036598,-2.855503423
-0.000101335,2.28036598,-2.895482125
-0.00010131,2.28036598,-2.895482125
-0.000101285,2.240079576,-2.895482125
-0.00010126,2.240079576,-2.935460826
-0.000101235,2.199793172,-2.935460826
-0.00010121,2.199793172,-2.935460826
-0.000101185,2.159506769,-2.935460826
-0.00010116,2.159506769,-2.935460826
-0.000101135,2.159506769,-2.935460826
-0.00010111,2.119220365,-2.975439528
-0.000101085,2.119220365,-2.975439528
-0.00010106,2.119220365,-2.975439528
-0.000101035,2.078933961,-2.975439528
-0.00010101,2.078933961,-2.975439528
-0.000100985,2.038647557,-3.015418229
-0.00010096,2.038647557,-3.015418229
-0.000100935,2.038647557,-3.015418229
-0.00010091,1.998361153,-3.015418229
-0.000100885,1.998361153,-3.015418229
-0.00010086,1.958074749,-3.055396931
-0.000100835,1.958074749,-3.055396931
-0.00010081,1.958074749,-3.015418229
-0.000100785,1.917788345,-3.055396931
-0.00010076,1.917788345,-3.055396931
-0.000100735,1.877501941,-3.095375632
-0.00010071,1.877501941,-3.095375632
-0.000100685,1.877501941,-3.095375632
-0.00010066,1.837215537,-3.095375632
-0.000100635,1.796929133,-3.135354334
-0.00010061,1.796929133,-3.135354334
-0.000100585,1.796929133,-3.135354334
-0.00010056,1.796929133,-3.135354334
-0.000100535,1.796929133,-3.135354334
-0.00010051,1.796929133,-3.135354334
-0.000100485,1.75664273,-3.135354334
-0.00010046,1.75664273,-3.135354334
-0.000100435,1.716356326,-3.175333035
-0.00010041,1.716356326,-3.175333035
-0.000100385,1.676069922,-3.175333035
-0.00010036,1.716356326,-3.175333035
-0.000100335,1.676069922,-3.175333035
-0.00010031,1.676069922,-3.175333035
-0.000100285,1.635783518,-3.175333035
-0.00010026,1.635783518,-3.215311737
-0.000100235,1.595497114,-3.215311737
-0.00010021,1.595497114,-3.215311737
-0.000100185,1.55521071,-3.255290438
-0.00010016,1.55521071,-3.255290438
-0.000100135,1.514924306,-3.255290438
-0.00010011,1.514924306,-3.255290438
-0.000100085,1.514924306,-3.255290438
-0.00010006,1.474637902,-3.255290438
-0.000100035,1.474637902,-3.29526914
-0.00010001,1.474637902,-3.29526914
-1.00E-04,1.474637902,-3.29526914
-1.00E-04,1.434351498,-3.29526914
-9.99E-05,1.394065095,-3.29526914
-9.99E-05,1.394065095,-3.335247841
-9.99E-05,1.394065095,-3.335247841
-9.99E-05,1.353778691,-3.29526914
-9.98E-05,1.353778691,-3.335247841
-9.98E-05,1.313492287,-3.335247841
-9.98E-05,1.313492287,-3.375226543
-9.98E-05,1.313492287,-3.335247841
-9.97E-05,1.273205883,-3.335247841
-9.97E-05,1.273205883,-3.375226543
-9.97E-05,1.232919479,-3.375226543
-9.97E-05,1.232919479,-3.335247841
-9.96E-05,1.232919479,-3.375226543
-9.96E-05,1.192633075,-3.375226543
-9.96E-05,1.192633075,-3.415205244
-9.96E-05,1.192633075,-3.375226543
-9.95E-05,1.152346671,-3.375226543
-9.95E-05,1.152346671,-3.415205244
-9.95E-05,1.152346671,-3.415205244
-9.95E-05,1.112060267,-3.415205244
-9.94E-05,1.112060267,-3.415205244
-9.94E-05,1.112060267,-3.415205244
-9.94E-05,1.071773863,-3.415205244
-9.94E-05,1.071773863,-3.415205244
-9.93E-05,1.03148746,-3.455183946
-9.93E-05,1.03148746,-3.455183946
-9.93E-05,1.03148746,-3.455183946
-9.93E-05,0.991201056,-3.455183946
-9.92E-05,0.991201056,-3.455183946
-9.92E-05,0.910628248,-3.495162647
-9.92E-05,0.950914652,-3.455183946
-9.92E-05,0.910628248,-3.495162647
-9.91E-05,0.910628248,-3.495162647
-9.91E-05,0.910628248,-3.495162647
-9.91E-05,0.870341844,-3.535141349
-9.91E-05,0.870341844,-3.535141349
-9.90E-05,0.870341844,-3.535141349
-9.90E-05,0.83005544,-3.535141349
-9.90E-05,0.83005544,-3.535141349
-9.90E-05,0.789769036,-3.57512005
-9.89E-05,0.789769036,-3.535141349
-9.89E-05,0.749482632,-3.535141349
-9.89E-05,0.749482632,-3.57512005
-9.89E-05,0.749482632,-3.57512005
-9.88E-05,0.749482632,-3.57512005
-9.88E-05,0.709196228,-3.57512005
-9.88E-05,0.709196228,-3.57512005
-9.88E-05,0.668909824,-3.615098752
-9.87E-05,0.668909824,-3.615098752
-9.87E-05,0.668909824,-3.615098752
-9.87E-05,0.628623421,-3.615098752
-9.87E-05,0.628623421,-3.615098752
-9.86E-05,0.588337017,-3.655077453
-9.86E-05,0.588337017,-3.655077453
-9.86E-05,0.588337017,-3.615098752
-9.86E-05,0.548050613,-3.615098752
-9.85E-05,0.548050613,-3.615098752
-9.85E-05,0.507764209,-3.655077453
-9.85E-05,0.507764209,-3.655077453
-9.85E-05,0.507764209,-3.655077453
-9.84E-05,0.467477805,-3.655077453
-9.84E-05,0.467477805,-3.655077453
-9.84E-05,0.427191401,-3.695056155
-9.84E-05,0.427191401,-3.695056155
-9.83E-05,0.427191401,-3.695056155
-9.83E-05,0.427191401,-3.695056155
-9.83E-05,0.386904997,-3.695056155
-9.83E-05,0.346618593,-3.695056155
-9.82E-05,0.386904997,-3.695056155
-9.82E-05,0.346618593,-3.695056155
-9.82E-05,0.306332189,-3.735034856
-9.82E-05,0.306332189,-3.735034856
-9.81E-05,0.266045786,-3.735034856
-9.81E-05,0.266045786,-3.735034856
-9.81E-05,0.266045786,-3.735034856
-9.81E-05,0.225759382,-3.775013558
-9.80E-05,0.225759382,-3.775013558
-9.80E-05,0.225759382,-3.775013558
-9.80E-05,0.225759382,-3.775013558
-9.80E-05,0.225759382,-3.775013558
-9.79E-05,0.185472978,-3.775013558
-9.79E-05,0.145186574,-3.775013558
-9.79E-05,0.145186574,-3.775013558
-9.79E-05,0.145186574,-3.814992259
-9.78E-05,0.10490017,-3.814992259
-9.78E-05,0.064613766,-3.814992259
-9.78E-05,0.064613766,-3.814992259
-9.78E-05,0.064613766,-3.814992259
-9.77E-05,0.064613766,-3.814992259
-9.77E-05,0.024327362,-3.854970961
-9.77E-05,0.024327362,-3.854970961
-9.77E-05,0.024327362,-3.854970961
-9.76E-05,-0.015959042,-3.854970961
-9.76E-05,-0.015959042,-3.854970961
-9.76E-05,-0.015959042,-3.854970961
-9.76E-05,-0.056245446,-3.854970961
-9.75E-05,-0.056245446,-3.854970961
-9.75E-05,-0.09653185,-3.854970961
-9.75E-05,-0.09653185,-3.894949662
-9.75E-05,-0.09653185,-3.854970961
-9.74E-05,-0.136818253,-3.894949662
-9.74E-05,-0.136818253,-3.894949662
-9.74E-05,-0.136818253,-3.894949662
-9.74E-05,-0.136818253,-3.854970961
-9.73E-05,-0.177104657,-3.894949662
-9.73E-05,-0.177104657,-3.894949662
-9.73E-05,-0.217391061,-3.894949662
-9.73E-05,-0.217391061,-3.894949662
-9.72E-05,-0.217391061,-3.934928364
-9.72E-05,-0.217391061,-3.894949662
-9.72E-05,-0.257677465,-3.934928364
-9.72E-05,-0.297963869,-3.934928364
-9.71E-05,-0.297963869,-3.934928364
-9.71E-05,-0.338250273,-3.934928364
-9.71E-05,-0.338250273,-3.934928364
-9.71E-05,-0.338250273,-3.974907065
-9.70E-05,-0.378536677,-3.974907065
-9.70E-05,-0.378536677,-3.934928364
-9.70E-05,-0.378536677,-3.974907065
-9.70E-05,-0.418823081,-3.974907065
-9.69E-05,-0.459109485,-3.974907065
-9.69E-05,-0.459109485,-4.014885767
-9.69E-05,-0.459109485,-4.014885767
-9.69E-05,-0.499395888,-3.974907065
-9.68E-05,-0.499395888,-4.014885767
-9.68E-05,-0.499395888,-4.014885767
-9.68E-05,-0.539682292,-4.014885767
-9.68E-05,-0.539682292,-4.014885767
-9.67E-05,-0.579968696,-4.014885767
-9.67E-05,-0.579968696,-4.054864468
-9.67E-05,-0.579968696,-4.014885767
-9.67E-05,-0.6202551,-4.054864468
-9.66E-05,-0.6202551,-4.054864468
-9.66E-05,-0.6202551,-4.054864468
-9.66E-05,-0.660541504,-4.054864468
-9.66E-05,-0.660541504,-4.054864468
-9.65E-05,-0.660541504,-4.054864468
-9.65E-05,-0.700827908,-4.054864468
-9.65E-05,-0.700827908,-4.054864468
-9.65E-05,-0.741114312,-4.09484317
-9.64E-05,-0.741114312,-4.09484317
-9.64E-05,-0.781400716,-4.09484317
-9.64E-05,-0.781400716,-4.09484317
-9.64E-05,-0.781400716,-4.09484317
-9.63E-05,-0.82168712,-4.09484317
-9.63E-05,-0.82168712,-4.09484317
-9.63E-05,-0.82168712,-4.09484317
-9.63E-05,-0.82168712,-4.09484317
-9.62E-05,-0.861973524,-4.134821871
-9.62E-05,-0.861973524,-4.134821871
-9.62E-05,-0.861973524,-4.09484317
-9.62E-05,-0.902259927,-4.134821871
-9.61E-05,-0.902259927,-4.134821871
-9.61E-05,-0.942546331,-4.134821871
-9.61E-05,-0.942546331,-4.134821871
-9.61E-05,-0.982832735,-4.134821871
-9.60E-05,-1.023119139,-4.134821871
-9.60E-05,-1.023119139,-4.134821871
-9.60E-05,-1.023119139,-4.174800573
-9.60E-05,-1.063405543,-4.174800573
-9.59E-05,-1.063405543,-4.174800573
-9.59E-05,-1.063405543,-4.174800573
-9.59E-05,-1.103691947,-4.174800573
-9.59E-05,-1.103691947,-4.174800573
-9.58E-05,-1.143978351,-4.214779274
-9.58E-05,-1.143978351,-4.214779274
-9.58E-05,-1.143978351,-4.214779274
-9.58E-05,-1.143978351,-4.214779274
-9.57E-05,-1.184264755,-4.214779274
-9.57E-05,-1.184264755,-4.214779274
-9.57E-05,-1.224551159,-4.214779274
-9.57E-05,-1.224551159,-4.214779274
-9.56E-05,-1.264837562,-4.254757976
-9.56E-05,-1.224551159,-4.214779274
-9.56E-05,-1.264837562,-4.214779274
-9.56E-05,-1.264837562,-4.254757976
-9.55E-05,-1.305123966,-4.254757976
-9.55E-05,-1.305123966,-4.254757976
-9.55E-05,-1.305123966,-4.254757976
-9.55E-05,-1.34541037,-4.254757976
-9.54E-05,-1.34541037,-4.254757976
-9.54E-05,-1.385696774,-4.254757976
-9.54E-05,-1.385696774,-4.294736677
-9.54E-05,-1.425983178,-4.254757976
-9.53E-05,-1.425983178,-4.294736677
-9.53E-05,-1.425983178,-4.254757976
-9.53E-05,-1.466269582,-4.254757976
-9.53E-05,-1.466269582,-4.294736677
-9.52E-05,-1.466269582,-4.294736677
-9.52E-05,-1.466269582,-4.254757976
-9.52E-05,-1.506555986,-4.294736677
-9.52E-05,-1.54684239,-4.294736677
-9.51E-05,-1.54684239,-4.334715379
-9.51E-05,-1.54684239,-4.294736677
-9.51E-05,-1.54684239,-4.294736677
-9.51E-05,-1.587128794,-4.294736677
-9.50E-05,-1.587128794,-4.294736677
-9.50E-05,-1.627415197,-4.334715379
-9.50E-05,-1.667701601,-4.334715379
-9.50E-05,-1.667701601,-4.334715379
-9.49E-05,-1.667701601,-4.334715379
-9.49E-05,-1.707988005,-4.334715379
-9.49E-05,-1.707988005,-4.37469408
-9.49E-05,-1.707988005,-4.37469408
-9.48E-05,-1.748274409,-4.37469408
-9.48E-05,-1.748274409,-4.37469408
-9.48E-05,-1.748274409,-4.37469408
-9.48E-05,-1.788560813,-4.37469408
-9.47E-05,-1.788560813,-4.37469408
-9.47E-05,-1.788560813,-4.37469408
-9.47E-05,-1.828847217,-4.414672782
-9.47E-05,-1.828847217,-4.37469408
-9.46E-05,-1.869133621,-4.37469408
-9.46E-05,-1.869133621,-4.37469408
-9.46E-05,-1.909420025,-4.37469408
-9.46E-05,-1.909420025,-4.414672782
-9.45E-05,-1.909420025,-4.414672782
-9.45E-05,-1.909420025,-4.414672782
-9.45E-05,-1.949706429,-4.414672782
-9.45E-05,-1.989992833,-4.414672782
-9.44E-05,-1.989992833,-4.414672782
-9.44E-05,-1.989992833,-4.414672782
-9.44E-05,-1.989992833,-4.414672782
-9.44E-05,-2.030279236,-4.414672782
-9.43E-05,-2.030279236,-4.414672782
-9.43E-05,-2.07056564,-4.454651483
-9.43E-05,-2.07056564,-4.454651483
-9.43E-05,-2.07056564,-4.414672782
-9.42E-05,-2.110852044,-4.454651483
-9.42E-05,-2.110852044,-4.454651483
-9.42E-05,-2.110852044,-4.454651483
-9.42E-05,-2.151138448,-4.454651483
-9.41E-05,-2.151138448,-4.454651483
-9.41E-05,-2.151138448,-4.454651483
-9.41E-05,-2.191424852,-4.454651483
-9.41E-05,-2.191424852,-4.454651483
-9.40E-05,-2.231711256,-4.494630185
-9.40E-05,-2.231711256,-4.454651483
-9.40E-05,-2.27199766,-4.494630185
-9.40E-05,-2.27199766,-4.494630185
-9.39E-05,-2.312284064,-4.494630185
-9.39E-05,-2.312284064,-4.494630185
-9.39E-05,-2.312284064,-4.494630185
-9.39E-05,-2.352570468,-4.494630185
-9.38E-05,-2.352570468,-4.494630185
-9.38E-05,-2.352570468,-4.494630185
-9.38E-05,-2.392856871,-4.534608886
-9.38E-05,-2.392856871,-4.534608886
-9.37E-05,-2.433143275,-4.534608886
-9.37E-05,-2.433143275,-4.494630185
-9.37E-05,-2.433143275,-4.534608886
-9.37E-05,-2.473429679,-4.534608886
-9.36E-05,-2.473429679,-4.534608886
-9.36E-05,-2.473429679,-4.534608886
-9.36E-05,-2.473429679,-4.534608886
-9.36E-05,-2.513716083,-4.534608886
-9.35E-05,-2.554002487,-4.534608886
-9.35E-05,-2.554002487,-4.534608886
-9.35E-05,-2.594288891,-4.574587588
-9.35E-05,-2.594288891,-4.574587588
-9.34E-05,-2.594288891,-4.574587588
-9.34E-05,-2.634575295,-4.574587588
-9.34E-05,-2.634575295,-4.574587588
-9.34E-05,-2.634575295,-4.574587588
-9.33E-05,-2.674861699,-4.574587588
-9.33E-05,-2.674861699,-4.574587588
-9.33E-05,-2.674861699,-4.614566289
-9.33E-05,-2.715148103,-4.574587588
-9.32E-05,-2.755434507,-4.574587588
-9.32E-05,-2.755434507,-4.574587588
-9.32E-05,-2.715148103,-4.614566289
-9.32E-05,-2.755434507,-4.614566289
-9.31E-05,-2.755434507,-4.574587588
-9.31E-05,-2.79572091,-4.574587588
-9.31E-05,-2.79572091,-4.614566289
-9.31E-05,-2.79572091,-4.614566289
-9.30E-05,-2.836007314,-4.614566289
-9.30E-05,-2.876293718,-4.574587588
-9.30E-05,-2.876293718,-4.614566289
-9.30E-05,-2.876293718,-4.614566289
-9.29E-05,-2.916580122,-4.614566289
-9.29E-05,-2.916580122,-4.614566289
-9.29E-05,-2.916580122,-4.654544991
-9.29E-05,-2.956866526,-4.614566289
-9.28E-05,-2.956866526,-4.654544991
-9.28E-05,-2.99715293,-4.654544991
-9.28E-05,-2.99715293,-4.654544991
-9.28E-05,-2.99715293,-4.654544991
-9.27E-05,-3.037439334,-4.654544991
-9.27E-05,-3.077725738,-4.654544991
-9.27E-05,-3.077725738,-4.654544991
-9.27E-05,-3.118012142,-4.694523692
-9.26E-05,-3.118012142,-4.654544991
-9.26E-05,-3.118012142,-4.654544991
-9.26E-05,-3.118012142,-4.694523692
-9.26E-05,-3.158298545,-4.694523692
-9.25E-05,-3.198584949,-4.694523692
-9.25E-05,-3.198584949,-4.694523692
-9.25E-05,-3.198584949,-4.694523692
-9.25E-05,-3.198584949,-4.694523692
-9.24E-05,-3.238871353,-4.694523692
-9.24E-05,-3.238871353,-4.694523692
-9.24E-05,-3.238871353,-4.694523692
-9.24E-05,-3.279157757,-4.694523692
-9.23E-05,-3.279157757,-4.734502394
-9.23E-05,-3.279157757,-4.694523692
-9.23E-05,-3.319444161,-4.694523692
-9.23E-05,-3.319444161,-4.694523692
-9.22E-05,-3.319444161,-4.734502394
-9.22E-05,-3.359730565,-4.734502394
-9.22E-05,-3.359730565,-4.734502394
-9.22E-05,-3.400016969,-4.734502394
-9.21E-05,-3.400016969,-4.734502394
-9.21E-05,-3.400016969,-4.694523692
-9.21E-05,-3.440303373,-4.734502394
-9.21E-05,-3.440303373,-4.734502394
-9.20E-05,-3.440303373,-4.734502394
-9.20E-05,-3.480589777,-4.734502394
-9.20E-05,-3.480589777,-4.734502394
-9.20E-05,-3.520876181,-4.734502394
-9.19E-05,-3.520876181,-4.734502394
-9.19E-05,-3.520876181,-4.734502394
-9.19E-05,-3.561162584,-4.734502394
-9.19E-05,-3.561162584,-4.774481095
-9.18E-05,-3.601448988,-4.774481095
-9.18E-05,-3.601448988,-4.774481095
-9.18E-05,-3.601448988,-4.774481095
-9.18E-05,-3.641735392,-4.774481095
-9.17E-05,-3.641735392,-4.774481095
-9.17E-05,-3.682021796,-4.774481095
-9.17E-05,-3.682021796,-4.774481095
-9.17E-05,-3.7223082,-4.814459797
-9.16E-05,-3.7223082,-4.774481095
-9.16E-05,-3.7223082,-4.814459797
-9.16E-05,-3.762594604,-4.814459797
-9.16E-05,-3.762594604,-4.814459797
-9.15E-05,-3.762594604,-4.814459797
-9.15E-05,-3.802881008,-4.814459797
-9.15E-05,-3.802881008,-4.814459797
-9.15E-05,-3.802881008,-4.814459797
-9.14E-05,-3.843167412,-4.814459797
-9.14E-05,-3.883453816,-4.814459797
-9.14E-05,-3.883453816,-4.814459797
-9.14E-05,-3.883453816,-4.814459797
-9.13E-05,-3.883453816,-4.814459797
-9.13E-05,-3.923740219,-4.814459797
-9.13E-05,-3.923740219,-4.814459797
-9.13E-05,-3.964026623,-4.814459797
-9.12E-05,-3.964026623,-4.814459797
-9.12E-05,-3.964026623,-4.814459797
-9.12E-05,-4.004313027,-4.814459797
-9.12E-05,-4.004313027,-4.854438499
-9.11E-05,-4.044599431,-4.854438499
-9.11E-05,-4.004313027,-4.854438499
-9.11E-05,-4.044599431,-4.854438499
-9.11E-05,-4.084885835,-4.854438499
-9.10E-05,-4.084885835,-4.854438499
-9.10E-05,-4.084885835,-4.854438499
-9.10E-05,-4.084885835,-4.854438499
-9.10E-05,-4.125172239,-4.854438499
-9.09E-05,-4.125172239,-4.854438499
-9.09E-05,-4.165458643,-4.854438499
-9.09E-05,-4.165458643,-4.8944172
-9.09E-05,-4.205745047,-4.854438499
-9.08E-05,-4.205745047,-4.854438499
-9.08E-05,-4.246031451,-4.854438499
-9.08E-05,-4.246031451,-4.8944172
-9.08E-05,-4.286317854,-4.8944172
-9.07E-05,-4.286317854,-4.854438499
-9.07E-05,-4.286317854,-4.8944172
-9.07E-05,-4.326604258,-4.8944172
-9.07E-05,-4.326604258,-4.8944172
-9.06E-05,-4.326604258,-4.8944172
-9.06E-05,-4.366890662,-4.8944172
-9.06E-05,-4.366890662,-4.8944172
-9.06E-05,-4.366890662,-4.8944172
-9.05E-05,-4.407177066,-4.8944172
-9.05E-05,-4.407177066,-4.934395902
-9.05E-05,-4.407177066,-4.934395902
-9.05E-05,-4.44746347,-4.934395902
-9.04E-05,-4.44746347,-4.934395902
-9.04E-05,-4.487749874,-4.934395902
-9.04E-05,-4.487749874,-4.934395902
-9.04E-05,-4.528036278,-4.934395902
-9.03E-05,-4.528036278,-4.934395902
-9.03E-05,-4.568322682,-4.934395902
-9.03E-05,-4.568322682,-4.934395902
-9.03E-05,-4.568322682,-4.934395902
-9.02E-05,-4.568322682,-4.934395902
-9.02E-05,-4.608609086,-4.934395902
-9.02E-05,-4.608609086,-4.934395902
-9.02E-05,-4.64889549,-4.934395902
-9.01E-05,-4.64889549,-4.934395902
-9.01E-05,-4.64889549,-4.974374603
-9.01E-05,-4.64889549,-4.934395902
-9.01E-05,-4.689181893,-4.974374603
-9.00E-05,-4.689181893,-4.934395902
-9.00E-05,-4.729468297,-4.974374603
-9.00E-05,-4.729468297,-4.934395902
-9.00E-05,-4.729468297,-4.974374603
-8.99E-05,-4.769754701,-4.974374603
-8.99E-05,-4.769754701,-4.974374603
-8.99E-05,-4.810041105,-4.974374603
-8.99E-05,-4.810041105,-4.974374603
-8.98E-05,-4.810041105,-4.974374603
-8.98E-05,-4.810041105,-4.974374603
-8.98E-05,-4.850327509,-4.974374603
-8.98E-05,-4.850327509,-4.974374603
-8.97E-05,-4.890613913,-4.974374603
-8.97E-05,-4.890613913,-4.974374603
-8.97E-05,-4.890613913,-4.974374603
-8.97E-05,-4.930900317,-5.014353305
-8.96E-05,-4.930900317,-4.974374603
-8.96E-05,-4.971186721,-5.014353305
-8.96E-05,-4.971186721,-4.974374603
-8.96E-05,-4.971186721,-4.974374603
-8.95E-05,-5.011473125,-5.014353305
-8.95E-05,-5.011473125,-5.014353305
-8.95E-05,-5.051759528,-5.014353305
-8.95E-05,-5.051759528,-5.014353305
-8.94E-05,-5.051759528,-5.014353305
-8.94E-05,-5.092045932,-5.014353305
-8.94E-05,-5.132332336,-5.014353305
-8.94E-05,-5.132332336,-5.054332006
-8.93E-05,-5.132332336,-5.014353305
-8.93E-05,-5.132332336,-5.014353305
-8.93E-05,-5.17261874,-5.054332006
-8.93E-05,-5.17261874,-5.054332006
-8.92E-05,-5.212905144,-5.054332006
-8.92E-05,-5.212905144,-5.054332006
-8.92E-05,-5.253191548,-5.054332006
-8.92E-05,-5.253191548,-5.054332006
-8.91E-05,-5.293477952,-5.014353305
-8.91E-05,-5.293477952,-5.054332006
-8.91E-05,-5.293477952,-5.054332006
-8.91E-05,-5.333764356,-5.054332006
-8.90E-05,-5.333764356,-5.054332006
-8.90E-05,-5.333764356,-5.014353305
-8.90E-05,-5.333764356,-5.014353305
-8.90E-05,-5.37405076,-5.054332006
-8.89E-05,-5.37405076,-5.054332006
-8.89E-05,-5.414337164,-5.054332006
-8.89E-05,-5.414337164,-5.054332006
